SUMMARY OUTPUT,,,,,,,,
,,,,,,,,
Regression Statistics,,,,,,,,
Multiple R,0.682805287,,,,,,,
R Square,0.466223061,0.533776939,,,,,,
Adjusted R Square,0.46254184,,,,,,,
Standard Error,10.59985631,,,,,,,
Observations,147,,,,,,,
,,,,,,,,
ANOVA,,,,,,,,
,df,SS,MS,F,Significance F,,,
Regression,1,14229.90177,14229.90177,126.6490528,1.64618E-21,,,
Residual,145,16291.75829,112.3569538,,,,,
Total,146,30521.66007,,,,,,
,,,,,,,,
,Coefficients,Standard Error,t Stat,P-value,Lower 95%,Upper 95%,Lower 95.0%,Upper 95.0%
Intercept,38.84588476,2.350325384,16.52787526,3.6514E-35,34.20056168,43.49120784,34.20056168,43.49120784
exhibWeeks,0.695141553,0.061769243,11.25384613,1.64618E-21,0.573057142,0.817225963,0.573057142,0.817225963
,,,,,,,,
,,,,,,,,
,,,,,,,,
RESIDUAL OUTPUT,,,,,,,,
,,,,,,,,
Observation,Predicted price,Residuals,,Bin,Frequency,,,
1,55.52928202,3.010717983,,-23.95041444,1,,,
2,68.73697152,3.893028484,,-19.40722266,5,,,
3,75.68838704,-5.338387041,,-14.86403088,6,,,
4,55.52928202,-18.43928202,,-10.3208391,10,,,
5,80.55437791,2.985622091,,-5.777647315,20,,,
6,63.87098065,6.459019352,,-1.234455534,23,,,
7,75.68838704,-12.87838704,,3.308736247,26,,,
8,63.1758391,-2.265839095,,7.851928028,23,,,
9,58.30984823,7.770151772,,12.39511981,17,,,
10,59.70013133,0.329868667,,16.93831159,8,,,
11,49.9681496,-7.438149597,,21.48150337,5,,,
12,75.68838704,-0.518387041,,26.02469515,2,,,
13,49.27300804,4.616991955,,More,1,,,
14,68.04182996,12.21817004,,,,,,
15,57.61470668,6.095293325,,,,,,
16,72.21267928,-10.16267928,,,,,,
17,58.30984823,-11.15984823,,,,,,
18,67.34668841,11.81331159,,,,,,
19,71.51753773,1.212462274,,,,,,
20,55.52928202,10.79071798,,,,,,
21,59.00498978,7.87501022,,,,,,
22,75.68838704,24.31161296,,,,,,
23,47.18758339,6.912416613,,,,,,
24,79.1640948,3.245905196,,,,,,
25,68.73697152,-7.896971516,,,,,,
26,63.87098065,-4.990980648,,,,,,
27,56.91956512,8.290434877,,,,,,
28,62.48069754,-21.93069754,,,,,,
29,60.39527289,19.65472711,,,,,,
30,76.38352859,-8.803528594,,,,,,
31,61.78555599,8.17444401,,,,,,
32,49.27300804,-13.67300804,,,,,,
33,74.99324549,5.386754511,,,,,,
34,48.57786649,-6.987866492,,,,,,
35,56.22442357,8.97557643,,,,,,
36,56.22442357,-8.55442357,,,,,,
37,59.70013133,5.799868667,,,,,,
38,51.3584327,-0.558432702,,,,,,
39,73.60296238,-1.882962384,,,,,,
40,64.5661222,-14.0261222,,,,,,
41,48.57786649,-5.727866492,,,,,,
42,58.30984823,-7.009848228,,,,,,
43,80.55437791,-9.244377909,,,,,,
44,66.65154686,-20.51154686,,,,,,
45,52.05357425,5.466425745,,,,,,
46,74.99324549,-4.053245489,,,,,,
47,63.87098065,3.309019352,,,,,,
48,76.38352859,-4.453528594,,,,,,
49,75.68838704,3.141612959,,,,,,
50,70.12725462,-0.007254621,,,,,,
51,53.44385736,-19.14385736,,,,,,
52,69.43211307,-0.852113068,,,,,,
53,71.51753773,-6.687537726,,,,,,
54,72.90782083,18.74217917,,,,,,
55,52.05357425,0.796425745,,,,,,
56,68.04182996,-9.591829963,,,,,,
57,51.3584327,-11.7284327,,,,,,
58,80.55437791,19.44562209,,,,,,
59,72.90782083,-4.537820831,,,,,,
60,51.3584327,14.4615673,,,,,,
61,57.61470668,7.935293325,,,,,,
62,45.79730028,-0.237300282,,,,,,
63,73.60296238,-14.52296238,,,,,,
64,49.9681496,-20.1681496,,,,,,
65,70.12725462,11.28274538,,,,,,
66,65.26126375,15.99873625,,,,,,
67,49.27300804,6.776991955,,,,,,
68,71.51753773,-16.46753773,,,,,,
69,68.04182996,2.748170037,,,,,,
70,57.61470668,-10.42470668,,,,,,
71,71.51753773,-1.487537726,,,,,,
72,63.1758391,-1.515839095,,,,,,
73,79.1640948,15.2259052,,,,,,
74,59.00498978,12.49501022,,,,,,
75,49.27300804,20.29699196,,,,,,
76,55.52928202,-2.509282017,,,,,,
77,46.49244183,-6.262441834,,,,,,
78,74.99324549,8.236754511,,,,,,
79,62.48069754,-6.050697543,,,,,,
80,73.60296238,-3.702962384,,,,,,
81,79.1640948,-5.904094804,,,,,,
82,52.05357425,-14.08357425,,,,,,
83,48.57786649,-7.287866492,,,,,,
84,53.44385736,14.91614264,,,,,,
85,65.26126375,-5.631263753,,,,,,
86,67.34668841,-4.306688411,,,,,,
87,79.85923636,7.140763644,,,,,,
88,66.65154686,3.598453142,,,,,,
89,65.26126375,-0.691263753,,,,,,
90,61.09041444,-23.95041444,,,,,,
91,56.22442357,-3.21442357,,,,,,
92,46.49244183,1.627558166,,,,,,
93,71.51753773,7.652462274,,,,,,
94,62.48069754,17.29930246,,,,,,
95,51.3584327,1.451567298,,,,,,
96,76.38352859,16.28647141,,,,,,
97,61.09041444,-9.610414438,,,,,,
98,68.04182996,-4.421829963,,,,,,
99,46.49244183,-9.792441834,,,,,,
100,66.65154686,-19.87154686,,,,,,
101,66.65154686,3.298453142,,,,,,
102,68.04182996,5.338170037,,,,,,
103,49.27300804,-3.833008045,,,,,,
104,54.13899891,6.041001088,,,,,,
105,76.38352859,-8.053528594,,,,,,
106,69.43211307,30.56788693,,,,,,
107,64.5661222,-5.326122201,,,,,,
108,55.52928202,6.180717983,,,,,,
109,68.73697152,-0.406971516,,,,,,
110,64.5661222,12.2238778,,,,,,
111,67.34668841,-12.15668841,,,,,,
112,63.87098065,2.299019352,,,,,,
113,63.87098065,-14.07098065,,,,,,
114,49.27300804,4.476991955,,,,,,
115,72.21267928,8.537320722,,,,,,
116,67.34668841,7.133311589,,,,,,
117,56.91956512,7.480434877,,,,,,
118,78.46895325,10.25104675,,,,,,
119,65.26126375,-0.261263753,,,,,,
120,74.99324549,13.52675451,,,,,,
121,76.38352859,-16.94352859,,,,,,
122,52.74871581,3.011284193,,,,,,
123,75.68838704,-17.46838704,,,,,,
124,77.07867015,-0.658670146,,,,,,
125,79.1640948,-3.144094804,,,,,,
126,49.9681496,-9.498149597,,,,,,
127,79.85923636,-5.529236356,,,,,,
128,65.26126375,3.598736247,,,,,,
129,58.30984823,-4.409848228,,,,,,
130,63.1758391,2.994160905,,,,,,
131,59.00498978,-19.38498978,,,,,,
132,75.68838704,3.611612959,,,,,,
133,49.27300804,9.006991955,,,,,,
134,64.5661222,-23.9161222,,,,,,
135,70.12725462,-0.707254621,,,,,,
136,57.61470668,0.815293325,,,,,,
137,48.57786649,23.40213351,,,,,,
138,70.82239617,-6.912396173,,,,,,
139,50.66329115,12.74670885,,,,,,
140,56.91956512,11.01043488,,,,,,
141,49.27300804,-2.663008045,,,,,,
142,65.26126375,4.418736247,,,,,,
143,68.04182996,-2.131829963,,,,,,
144,66.65154686,-9.681546858,,,,,,
145,48.57786649,10.07213351,,,,,,
146,48.57786649,8.892133508,,,,,,
147,66.65154686,3.238453142,,,,,,
