SUMMARY OUTPUT,,,,,,,,
,,,,,,,,
Regression Statistics,,,,,,,,
Multiple R,0.702215912,,,,,,,
R Square,0.493107186,,,,,,,
Adjusted R Square,0.489682235,,,,,,,
Standard Error,9.732158932,,,,,,,
Observations,150,,,,,,,
,,,,,,,,
ANOVA,,,,,,,,
,df,SS,MS,F,Significance F,,,
Regression,1,13636.57478,13636.57478,143.9749423,1.35043E-23,,,
Residual,148,14017.80779,94.71491748,,,,,
Total,149,27654.38257,,,,,,
,,,,,,,,
,Coefficients,Standard Error,t Stat,P-value,Lower 95%,Upper 95%,Lower 95.0%,Upper 95.0%
Intercept,39.22320476,2.089141367,18.77479685,5.43133E-41,35.09480551,43.35160401,35.09480551,43.35160401
numQuizzes,0.657249912,0.054775592,11.99895588,1.35043E-23,0.549006633,0.765493192,0.549006633,0.765493192
,,,,,,,,
,,,,,,,,
,,,,,,,,
RESIDUAL OUTPUT,,,,,,,,
,,,,,,,,
Observation,Predicted unitMark,Residuals,,,,,,
1,49.73920336,7.090796643,,,,,,
2,76.02919985,1.350800151,,,,,,
3,74.71470002,-0.494700024,,,,,,
4,51.71095309,4.279046906,,,,,,
5,75.37194994,1.068050063,,,,,,
6,51.05370318,12.43629682,,,,,,
7,49.73920336,-9.009203357,,,,,,
8,77.34369967,13.53630033,,,,,,
9,47.11020371,4.339796292,,,,,,
10,60.25520195,-2.385201954,,,,,,
11,56.96895239,-23.43895239,,,,,,
12,45.79570388,2.514296117,,,,,,
13,56.31170248,17.36829752,,,,,,
14,78.6581995,-1.358199498,,,,,,
15,54.99720266,0.092797345,,,,,,
16,76.02919985,15.99080015,,,,,,
17,74.05745011,4.462549888,,,,,,
18,51.71095309,2.999046906,,,,,,
19,53.02545292,-2.915452918,,,,,,
20,67.48495099,-2.704950989,,,,,,
21,59.59795204,-3.577952041,,,,,,
22,66.17045116,25.38954884,,,,,,
23,78.00094959,-12.73094959,,,,,,
24,75.37194994,18.32805006,,,,,,
25,47.76745362,-13.22745362,,,,,,
26,70.11395064,-11.32395064,,,,,,
27,51.05370318,-1.093703181,,,,,,
28,61.56970178,10.43029822,,,,,,
29,72.74295029,-2.522950288,,,,,,
30,60.25520195,7.024798046,,,,,,
31,62.22695169,1.523048309,,,,,,
32,49.08195344,-5.641953445,,,,,,
33,70.77120055,-3.871200551,,,,,,
34,65.51320125,-16.39320125,,,,,,
35,73.4002002,-7.9602002,,,,,,
36,56.96895239,3.061047608,,,,,,
37,69.45670073,4.463299274,,,,,,
38,74.05745011,4.792549888,,,,,,
39,50.39645327,8.223546731,,,,,,
40,56.96895239,-4.768952392,,,,,,
41,66.17045116,21.12954884,,,,,,
42,53.02545292,-5.155452918,,,,,,
43,69.45670073,-11.19670073,,,,,,
44,75.37194994,-2.861949937,,,,,,
45,52.36820301,6.051796994,,,,,,
46,58.94070213,-0.450702129,,,,,,
47,66.82770108,-19.74770108,,,,,,
48,68.1422009,-31.6022009,,,,,,
49,60.91245187,-3.472451866,,,,,,
50,49.73920336,-4.939203357,,,,,,
51,49.08195344,7.098046555,,,,,,
52,76.02919985,-20.10919985,,,,,,
53,47.11020371,-0.660203708,,,,,,
54,58.94070213,3.749297871,,,,,,
55,49.73920336,6.210796643,,,,,,
56,58.94070213,8.869297871,,,,,,
57,54.33995274,-14.35995274,,,,,,
58,47.76745362,-0.27745362,,,,,,
59,50.39645327,-12.34645327,,,,,,
60,58.28345222,-5.433452217,,,,,,
61,47.11020371,3.899796292,,,,,,
62,45.79570388,9.574296117,,,,,,
63,68.1422009,8.037799099,,,,,,
64,47.76745362,6.53254638,,,,,,
65,63.54145152,2.788548485,,,,,,
66,72.74295029,-5.462950288,,,,,,
67,65.51320125,0.016798748,,,,,,
68,61.56970178,7.480298222,,,,,,
69,64.85595134,0.30404866,,,,,,
70,70.77120055,-16.53120055,,,,,,
71,67.48495099,8.585049011,,,,,,
72,66.17045116,-6.700451164,,,,,,
73,70.11395064,-5.373950638,,,,,,
74,76.68644976,14.21355024,,,,,,
75,60.91245187,11.36754813,,,,,,
76,60.91245187,-2.582451866,,,,,,
77,65.51320125,-15.90320125,,,,,,
78,76.68644976,14.22355024,,,,,,
79,66.17045116,-4.230451164,,,,,,
80,71.42845046,15.53154954,,,,,,
81,58.28345222,-9.863452217,,,,,,
82,76.02919985,-2.339199849,,,,,,
83,49.73920336,5.940796643,,,,,,
84,68.1422009,-5.782200901,,,,,,
85,64.85595134,-1.14595134,,,,,,
86,60.91245187,-17.08245187,,,,,,
87,56.96895239,2.091047608,,,,,,
88,78.00094959,4.269050414,,,,,,
89,68.1422009,8.747799099,,,,,,
90,56.31170248,9.52829752,,,,,,
91,54.33995274,-5.959952743,,,,,,
92,70.11395064,12.55604936,,,,,,
93,62.22695169,-13.56695169,,,,,,
94,59.59795204,1.692047959,,,,,,
95,62.8842016,-1.564201603,,,,,,
96,49.08195344,-1.221953445,,,,,,
97,67.48495099,1.285049011,,,,,,
98,78.6581995,-15.7781995,,,,,,
99,70.77120055,2.678799449,,,,,,
100,68.1422009,-6.012200901,,,,,,
101,74.71470002,-9.934700024,,,,,,
102,63.54145152,13.28854848,,,,,,
103,70.11395064,2.656049362,,,,,,
104,58.94070213,-1.430702129,,,,,,
105,70.11395064,-4.303950638,,,,,,
106,54.33995274,1.440047257,,,,,,
107,49.08195344,2.178046555,,,,,,
108,51.71095309,8.919046906,,,,,,
109,58.94070213,7.479297871,,,,,,
110,74.71470002,-24.51470002,,,,,,
111,72.74295029,11.52704971,,,,,,
112,70.77120055,-7.351200551,,,,,,
113,74.71470002,2.125299976,,,,,,
114,56.96895239,6.841047608,,,,,,
115,72.74295029,-7.892950288,,,,,,
116,64.19870143,-8.448701428,,,,,,
117,78.6581995,5.751800502,,,,,,
118,49.08195344,2.918046555,,,,,,
119,53.68270283,-14.05270283,,,,,,
120,53.68270283,11.86729717,,,,,,
121,78.6581995,-2.018199498,,,,,,
122,50.39645327,2.363546731,,,,,,
123,67.48495099,16.04504901,,,,,,
124,76.02919985,-3.729199849,,,,,,
125,69.45670073,-2.406700726,,,,,,
126,78.00094959,11.67905041,,,,,,
127,59.59795204,-3.877952041,,,,,,
128,54.99720266,-11.97720266,,,,,,
129,50.39645327,10.67354673,,,,,,
130,60.25520195,-8.005201954,,,,,,
131,59.59795204,-10.34795204,,,,,,
132,69.45670073,3.983299274,,,,,,
133,47.76745362,-0.86745362,,,,,,
134,64.19870143,14.05129857,,,,,,
135,68.1422009,11.5977991,,,,,,
136,48.42470353,-16.11470353,,,,,,
137,45.79570388,-16.70570388,,,,,,
138,70.77120055,4.258799449,,,,,,
139,60.25520195,2.664798046,,,,,,
140,62.22695169,-2.656951691,,,,,,
141,61.56970178,-9.009701778,,,,,,
142,59.59795204,12.80204796,,,,,,
143,59.59795204,-1.067952041,,,,,,
144,50.39645327,2.343546731,,,,,,
145,58.94070213,-1.370702129,,,,,,
146,53.68270283,-2.302702831,,,,,,
147,56.96895239,1.511047608,,,,,,
148,72.08570038,5.934299625,,,,,,
149,70.77120055,0.898799449,,,,,,
150,60.25520195,12.50479805,,,,,,
