SubID,sex,numSponsors,percentWin,,,,,,,,,
subj50,men,10,45.8,,,,,,,,,
subj103,men,10,47.71,,,numSponsors men,,,numSponsors women,,,
subj139,men,11,46.32,,,,,,,,,
subj20,men,12,67.27,,,Mean,34.69333333,,Mean,34.83333333,,-0.14
subj106,men,12,39.26,,,Standard Error,1.879426147,,Standard Error,1.831732122,,
subj73,men,13,53.12,,,Median,33,,Median,36,,
subj126,men,13,55.42,,,Mode,30,,Mode,19,,
subj129,men,13,48.7,,,Standard Deviation,16.27630788,,Standard Deviation,15.54276246,,
subj94,men,14,37.02,,,Sample Variance,264.9181982,,Sample Variance,241.5774648,,
subj121,men,14,55.05,,,Kurtosis,-1.418589548,,Kurtosis,-1.320736531,,
subj145,men,14,41.43,,,Skewness,0.036135992,,Skewness,-0.061777171,,
subj93,men,15,30.05,,,Range,49,,Range,50,,
subj108,men,15,51.39,,,Minimum,10,,Minimum,10,,
subj59,men,16,61.66,,,Maximum,59,,Maximum,60,,
subj85,men,16,49.85,,,Sum,2602,,Sum,2508,,
subj132,men,16,48.69,,,Count,75,,Count,72,,
subj84,men,17,61.94,,,,,,,0,,
subj127,men,17,60.64,,,,,,,,,
subj6,men,18,43.56,,,t-Test: Two-Sample Assuming Equal Variances,,,,,,
subj81,men,21,47.75,,,Sponsors,,,,,,
subj101,men,22,58.61,,,,numSponsors,10,,,,
subj28,men,23,78,,,Mean,34.69333333,35.18309859,,,,
subj36,men,23,71.86,,,Variance,264.9181982,236.0945674,,,,
subj113,men,23,64.96,,,Observations,75,71,,,,
subj76,men,24,37.27,,,Pooled Variance,250.906711,,,,,
subj125,men,24,58.44,,,Hypothesized Mean Difference,0,,,,,
subj136,men,24,63.32,,,df,144,,,,,
subj54,men,25,53.83,,,t Stat,-0.18673048,,,,,
subj104,men,28,62.7,,,P(T<=t) one-tail,0.426067388,,,,,
subj49,men,29,47.53,,,t Critical one-tail,1.655504177,,,,,
subj135,men,29,45.8,,,P(T<=t) two-tail,0.852134775,,,,,
subj51,men,30,69.93,,,t Critical two-tail,1.976575066,,,,,
subj70,men,30,45.16,,,,,,,,,
subj100,men,30,65.23,,,,,,,,,
subj107,men,30,40.68,,,t-Test: Two-Sample Assuming Equal Variances,,,,,,
subj21,men,33,72.74,,,Wins,,,,,,
subj22,men,33,54.74,,,,percentWin,59.38,,,,
subj116,men,33,75.62,,,Mean,63.6896,60.98549296,,,,
subj122,men,33,65.68,,,Variance,206.0315742,232.0694937,,,,
subj92,men,35,61.06,,,Observations,75,71,,,,
subj16,men,36,75.57,,,Pooled Variance,218.6888962,,,,,
subj56,men,39,69.28,,,Hypothesized Mean Difference,0,,,,,
subj120,men,39,82.83,,,df,144,,,,,
subj18,men,40,76.83,,,t Stat,1.104317339,,,,,
subj55,men,41,65.23,,,P(T<=t) one-tail,0.135648684,,,,,
subj63,men,43,55.66,,,t Critical one-tail,1.655504177,,,,,
subj67,men,43,67.3,,,P(T<=t) two-tail,0.271297367,,,,,
subj71,men,43,76.83,,,t Critical two-tail,1.976575066,,,,,
subj45,men,44,74.16,,,,,,,,,
subj26,men,45,77.83,,,,,,,,,
subj30,men,46,80.71,,,,,,,,,
subj74,men,47,72.74,,,,,,,,,
subj119,men,47,93.78,,,,,,,,,
subj42,men,48,67.77,,,,,,,,,
subj47,men,48,63.34,,,,,,,,,
subj118,men,48,72.96,,,,,,,,,
subj13,men,50,69.95,,,,,,,,,
subj15,men,50,79.56,,,,,,,,,
subj147,men,52,62.59,,,,,,,,,
subj80,men,53,72.45,,,,,,,,,
subj99,men,53,59.83,,,,,,,,,
subj32,men,54,64.85,,,,,,,,,
subj82,men,54,94.38,,,,,,,,,
subj5,men,55,75.64,,,,,,,,,
subj61,men,55,74.39,,,,,,,,,
subj2,men,57,77.31,,,,,,,,,
subj3,men,57,83.72,,,,,,,,,
subj66,men,57,63.84,,,,,,,,,
subj60,men,58,75.59,,,,,,,,,
subj117,men,58,81.78,,,,,,,,,
subj134,men,58,70.16,,,,,,,,,
subj19,men,59,93.83,,,,,,,,,
subj23,men,59,76.71,,,,,,,,,
subj25,men,59,59.55,,,,,,,,,
subj111,men,59,81.98,,,,,,,,,
subj34,women,10,59.38,,,,,,,,,
subj89,women,10,38.34,,,,,,,,,
subj91,women,10,39.96,,,,,,,,,
subj83,women,11,55.53,,,,,,,,,
subj123,women,11,48.63,,,,,,,,,
subj27,women,12,25.15,,,,,,,,,
subj114,women,13,50.59,,,,,,,,,
subj138,women,13,52.54,,,,,,,,,
subj24,women,15,65.09,,,,,,,,,
subj44,women,15,38.64,,,,,,,,,
subj53,women,15,30.88,,,,,,,,,
subj105,women,17,38.58,,,,,,,,,
subj78,women,18,43.17,,,,,,,,,
subj33,women,19,30.2,,,,,,,,,
subj62,women,19,68.56,,,,,,,,,
subj112,women,19,32.37,,,,,,,,,
subj142,women,19,47.15,,,,,,,,,
subj31,women,20,61.95,,,,,,,,,
subj43,women,21,69.61,,,,,,,,,
subj95,women,21,74.39,,,,,,,,,
subj137,women,21,43.42,,,,,,,,,
subj37,women,22,59.56,,,,,,,,,
subj35,women,24,56.65,,,,,,,,,
subj68,women,24,53.17,,,,,,,,,
subj58,women,26,33.73,,,,,,,,,
subj128,women,26,46.72,,,,,,,,,
subj87,women,27,57.74,,,,,,,,,
subj64,women,28,77.09,,,,,,,,,
subj143,women,28,44.96,,,,,,,,,
subj109,women,29,48.7,,,,,,,,,
subj57,women,31,53.02,,,,,,,,,
subj144,women,31,46.81,,,,,,,,,
subj11,women,32,55.08,,,,,,,,,
subj146,women,33,53.77,,,,,,,,,
subj9,women,35,55.54,,,,,,,,,
subj130,women,35,70.16,,,,,,,,,
subj97,women,37,65.86,,,,,,,,,
subj131,women,37,67.29,,,,,,,,,
subj69,women,39,61.95,,,,,,,,,
subj29,women,40,69.48,,,,,,,,,
subj65,women,40,57.57,,,,,,,,,
subj79,women,40,70.81,,,,,,,,,
subj141,women,42,74.5,,,,,,,,,
subj77,women,43,63.8,,,,,,,,,
subj98,women,44,80.67,,,,,,,,,
subj124,women,44,74.87,,,,,,,,,
subj88,women,45,58.95,,,,,,,,,
subj4,women,46,72.57,,,,,,,,,
subj14,women,46,51.33,,,,,,,,,
subj17,women,46,79.37,,,,,,,,,
subj72,women,46,73.75,,,,,,,,,
subj48,women,47,62.43,,,,,,,,,
subj12,women,48,73.99,,,,,,,,,
subj133,women,48,68.66,,,,,,,,,
subj140,women,48,78.47,,,,,,,,,
subj8,women,49,74.72,,,,,,,,,
subj40,women,49,77.25,,,,,,,,,
subj52,women,50,60.7,,,,,,,,,
subj41,women,51,74.39,,,,,,,,,
subj75,women,51,73.63,,,,,,,,,
subj86,women,51,87.31,,,,,,,,,
subj102,women,52,60.26,,,,,,,,,
subj96,women,53,58.93,,,,,,,,,
subj110,women,53,58.53,,,,,,,,,
subj10,women,54,80.1,,,,,,,,,
subj38,women,54,71.25,,,,,,,,,
subj39,women,57,81.7,,,,,,,,,
subj46,women,59,75.84,,,,,,,,,
subj115,women,59,83.32,,,,,,,,,
subj1,women,60,78.11,,,,,,,,,
subj7,women,60,90.8,,,,,,,,,
subj90,women,60,69.36,,,,,,,,,
