SubID,liveStream,numQuizzes,unitMark
subj1,True,60,76.16
subj2,True,24,52.13
subj3,False,25,54.23
subj4,False,23,64.28
subj5,True,58,69.27
subj6,True,24,52.84
subj7,True,25,73.03
subj8,False,60,74.06
subj9,True,47,72.44
subj10,False,48,87.98
subj11,False,29,59.56
subj12,True,10,50.94
subj13,True,13,52.46
subj14,False,34,76.57
subj15,True,37,62.54
subj16,False,50,94.36
subj17,False,59,65.57
subj18,False,20,51.67
subj19,False,30,45.08
subj20,False,48,59.17
subj21,True,55,82.66
subj22,False,20,35.48
subj23,True,23,61.74
subj24,False,57,60.99
subj25,False,25,57.12
subj26,True,20,67.44
subj27,False,15,34.43
subj28,False,20,52.36
subj29,True,11,57.94
subj30,False,55,62.04
subj31,True,12,75.37
subj32,False,59,93.28
subj33,True,15,34.3
subj34,True,27,38.84
subj35,False,13,38.57
subj36,True,15,47.56
subj37,True,49,51.67
subj38,False,16,39.43
subj39,False,12,43.55
subj40,False,47,43.81
subj41,False,25,62.08
subj42,True,43,76.43
subj43,False,19,62.71
subj44,True,10,65.55
subj45,False,39,62.48
subj46,True,48,80.2
subj47,False,17,50
subj48,True,54,73.64
subj49,False,45,75.23
subj50,False,39,66.02
subj51,True,28,53.84
subj52,True,31,58.21
subj53,False,50,76.99
subj54,False,28,59.07
subj55,True,17,55.82
subj56,True,22,33.86
subj57,True,54,79.74
subj58,True,42,49.58
subj59,False,28,60.57
subj60,True,17,55.19
subj61,False,44,49.09
subj62,True,32,56.17
subj63,False,25,53.27
subj64,False,14,33.63
subj65,False,37,54.88
subj66,True,35,58.21
subj67,True,21,40.86
subj68,True,41,64.89
subj69,False,24,53.59
subj70,False,47,55.11
subj71,True,32,55.36
subj72,False,13,53.15
subj73,True,26,63.83
subj74,True,40,66.17
subj75,True,20,59.09
subj76,False,17,52.19
subj77,False,58,91.97
subj78,True,23,67.2
subj79,True,26,62.66
subj80,True,52,95.45
subj81,True,24,51.85
subj82,True,46,73.35
subj83,False,55,72.93
subj84,True,26,48.34
subj85,False,40,70.48
subj86,True,14,42.04
subj87,True,25,51.9
subj88,False,11,44.22
subj89,True,45,72.46
subj90,False,40,54.8
subj91,True,41,63.56
subj92,True,21,56.1
subj93,True,16,53.49
subj94,True,13,59.71
subj95,False,11,42.29
subj96,True,10,38.16
subj97,True,45,75.42
subj98,False,23,39.65
subj99,True,41,69.45
subj100,True,55,82.76
subj101,False,40,79.72
subj102,True,53,75.39
subj103,True,48,70.14
subj104,True,12,44.09
subj105,True,38,77.75
subj106,False,21,73.17
subj107,False,33,56.42
subj108,True,41,57.65
subj109,True,11,68.7
subj110,True,59,64.03
subj111,False,18,57.91
subj112,False,17,46.05
subj113,False,12,66.26
subj114,False,11,36.55
subj115,False,42,62.19
subj116,False,18,56.7
subj117,True,53,72.42
subj118,True,58,73.27
subj119,True,53,71.2
subj120,False,49,73.13
subj121,True,59,82.85
subj122,True,37,57.44
subj123,False,22,36.94
subj124,True,11,45.65
subj125,False,49,78.09
subj126,True,36,61.6
subj127,True,13,54.49
subj128,True,23,48.21
subj129,False,26,61.41
subj130,False,56,71.38
subj131,False,54,60.31
subj132,False,50,65.27
subj133,True,56,88.41
subj134,False,47,76.39
subj135,True,25,50.48
subj136,False,12,53.22
subj137,False,25,56.79
subj138,False,35,47.27
subj139,False,55,92.02
subj140,False,58,81.6
subj141,False,40,47.03
subj142,False,50,56.72
subj143,False,28,60.87
subj144,True,34,48.35
subj145,False,55,74.94
subj146,False,60,86.2
