x,,,,,,,,,,,,,,,,,
-0.47,,,,,,,,,,,,,,,,,
1.93,,,,,,,,,,,,,,,,,
2.11,,,,,,,,,,,,,,,,,
2.19,,,,,,,,,,,,,,,,,
2.42,,,,,,,,,,,,,,,,,
2.55,,,,,,,,,,,,,,,,,
2.71,,,,,,,,,,,,,,,,,
2.79,,,,,,,,,,,,,,,,,
2.88,,,,,,,,,,,,,,,,,
2.98,,,,,,,,,,,,,,,,,
3.03,,,,,,,,,,,,,,,,,
3.28,,,,,,,,,,,,,,,,,
3.32,,,,,,,,,,,,,,,,,
3.6,,,,,,,,,,,,,,,,,
3.6,,,,,,,,,,,,,,,,,
3.67,,,,,,,,,,,,,,,,,
3.74,,,,,,,,,,,,,,,,,
3.76,,,,,,,,,,,,,,,,,
3.77,,,,,,,,,,,,,,,,,
3.9,,,,,,,,,,,,,,,,,
3.97,,,,,,,,,,,,,,,,,
4.13,,,,,,,,,,,,,,,,,
4.28,,,,,,,,,,,,,,,,,
4.29,,,Column1,,,,,,,,,,,,,,
4.29,,,,,,,,,,,,,,,,,
4.4,,,Mean,4,,,,,,,,,,,,,
4.77,,,Standard Error,0.263919123,,,,,,,,0.835,,Column1,,,
4.77,,,Median,3.77,,,,,,,,0.963,,,,,
5.13,,,Mode,3.6,,,,,,,,1.008,,Mean,1.290166667,,
5.34,,,Standard Deviation,1.60535735,,,,,,,,1.02,,Standard Error,0.110490904,,
5.38,,,Sample Variance,2.577172222,,,,,,,,1.131,,Median,1.202,,
5.58,,,Kurtosis,0.871528956,,,,,,,,1.132,,Mode,#N/A,,
5.99,,,Skewness,0.028993897,,,,,,,,1.272,,Standard Deviation,0.38275172,,
6.56,,,Range,8.03,,,,,,,,1.351,,Sample Variance,0.146498879,,
6.82,,,Minimum,-0.47,,,,,,,,1.474,,Kurtosis,3.218954687,,0.487
6.98,,,Maximum,7.56,,,,,,,,1.506,,Skewness,1.526102375,,
7.56,,,Sum,148,,,,,,,,1.522,,Range,1.433,,
4,mean,,Count,37,,,,,,,,2.268,,Minimum,0.835,,
2.98, 1 Q,,,,,,,,,,1Q,1.011,,Maximum,2.268,,
4.77,  3 Q,,,,,,,,,,3 Q,1.498,,Sum,15.482,,
1.79,  IQR,,,,,,,,,,IQR,0.487,,Count,12,,
0.295, LOWER FENCE,,,,,,,,,,,2.2285,,,,,
7.455,UPPER FENCE,,,,,,,,,,,,,,,,
18.5,,,,,,,,,,,,,,,,,
